{"zhuyejiekou": [
{"name":"粉象视频","url":"http://42.157.129.15:34444/lvdou_api.php/v1.vod"},
{"name":"看365","url":"https://www.kan365.xyz/api.php/app/"},
{"name":"爱西西","url":"https://myaixixi.com/xgapp.php/v1/"},
{"name":"4K影院","url":"http://1api.4kdytv.com/api.php/v1.vod"},
{"name":"555影院","url":"https://555dy3.com/api.php/app/"},
{"name":"影视大全","url":"http://app.269w.com/api.php/v1.vod"},
{"name":"小蜻蜓","url":"http://3ketv.com/api.php/v1.vod"},
{"name":"4K影院","url":"http://1api.4kdytv.com/api.php/v1.vod"},
{"name":"白嫖影视","url":"http://zgjxdtg.cn/api.php/v1.vod"},
{"name":"独播社","url":"http://35ys.cc/api.php/v1.vod"},
{"name":"虎猫视频","url":"https://humaosp.com/mogai_api.php/v1.vod"},
{"name":"小极影视","url":"http://app.8d8q.com/api.php/v1.vod"},
{"name":"心鸾影视","url":"http://zhiyutv.xyz/api.php/v1.vod"},
{"name":"雪人影视","url":"https://zy.qd234.cn/mogai_api.php/v1.vod"},
{"name":"益达影院","url":"http://luobu.yss6080.com/mogai_api.php/v1.vod"},
{"name":"U5影视","url":"https://appx.uy07.com/api.php/v1.vod"},
{"name":"益达影院","url":"http://luobu.yss6080.com/mogai_api.php/v1.vod"},
{"name":"蓝光视频","url":"http://vip.91iqiyi.com/mogai_api.php/v1.vod"},
{"name":"city","url":"https://www.citydy.com/api.php/app"}],
"zhujiexi": "http://47.100.138.210:91/home/api?type=ys&uid=7593435&key=ehortuyAHMNQTWX457&url=#https://languangyingshiziyuan.1080zy.top/longteng.php/?url=#https://jf.1080p.icu:3377/home/api?type=ys&uid=139706&key=cgjlntwxzAEMQTUVWX&url=#https://jx.300ys.xyz/json/jh.php/?url=#https://humaosp.com/json.php?url=#https://apis.jxcxin.cn/api/jx?url=#https://api.m3u8.tv:5678/home/api?type=ys&uid=1931000&key=gktuvyzABEORSYZ135&url=#https://jx.ncxmid.cn/sb/?url=#https://json.pangujiexi.com:12345/json.php?url=#http://23.224.174.74:5577/home/api?type=ys&uid=19722&key=aghknrsvxCDEGNRSUZ&url=#http://ys.ling00.cn/json/?url=#https://che.kmys.top/1.php?url=#https://jb.vjiangbei.com/home/api?type=ys&uid=2219260&key=hlmnpqswHIKQRSX146&url=",
"beiyongjiexi": "http://api.vip123kan.vip/?url=#https://www.playm3u8.cn/jiexi.php?url=#https://okjx.cc/?url=",
"renrenjiexi": "https://ku.renrenmi.cc/api/?key=ZTSkid2ROth73IfIIR&url=",
"LTjiexi": "https://che.kmys.top/1.php?url=",
"wuduyunjiexi": "https://jf.1080p.icu:3377/home/api?type=ys&uid=139706&key=cgjlntwxzAEMQTUVWX&url=",
"dianshizhibo": "https://yilishawk.github.io/mao/dszb.php",
"caijizhan": "https://pianku.wang/api.php",
"tiyuzhibo": "https://m.zhibo8.net",
"reci": "https://v.sogou.com",
"wuqu": "aHR0cDovL3d3dy5kanV1LmNvbQ==",
"gongju": "aHR0cDovLzQyLjE5My41NS4yNDI=",
"lunbofanye": "https://www.douyu.com/gapi/rkc/directory/mixList/2_208/",
"lunboqianzhui": "https://m.douyu.com",
"Home": {
"dy": {
"class": "全部$&class=#喜剧$&class=喜剧#爱情$&class=爱情#动作$&class=动作#枪战$&class=枪战#犯罪$&class=犯罪#惊悚$&class=惊悚#恐怖$&class=恐怖#悬疑$&class=悬疑#动画$&class=动画#家庭$&class=家庭#奇幻$&class=奇幻#魔幻$&class=魔幻#科幻$&class=科幻#战争$&class=战争#青春$&class=青春#剧情$&class=剧情#西部$&class=西部#纪录$&class=记录#音乐$&class=音乐#歌舞$&class=歌舞#运动$&class=运动#历史$&class=历史#武侠$&class=武侠#冒险$&class=冒险#传记$&class=传记",
"area": "全部$&area=#内地$&area=内地#香港$&area=香港#美国$&area=美国#欧洲$&area=欧洲#韩国$&area=韩国#日本$&area=日本#泰国$&area=泰国#印度$&area=印度#其它$&area=其它",
"year": "全部$&lang=&year=#2022$&lang=&year=2022#2021$&lang=&year=2021#2020$&lang=&year=2020#2019$&lang=&year=2019#2018$&lang=&year=2018#2017$&lang=&year=2017#2016-2011$&lang=&year=2016#2010-2000$&lang=&year=2010#90年代$&lang=&year=90#80年代$&lang=&year=80#更早$&lang=&year=70"
},
"dsj": {
"class": "全部$&class=#古装$&class=古装#言情$&class=言情#武侠$&class=武侠#偶像$&class=偶像#家庭$&class=家庭#青春$&class=青春#都市$&class=都市#喜剧$&class=喜剧#战争$&class=战争#军旅$&class=军旅#谍战$&class=谍战#悬疑$&class=悬疑#罪案$&class=罪案#穿越$&class=穿越#宫廷$&class=宫廷#历史$&class=历史#神话$&class=神话#科幻$&class=科幻#年代$&class=年代#农村$&class=农村#商战$&class=商战#剧情$&class=剧情#奇幻$&class=奇幻",
"area": "全部$&area=#内地$&area=内地#香港$&area=香港#美国$&area=美国#英国$&area=英国#韩国$&area=韩国#日本$&area=日本#泰国$&area=泰国#台湾$&area=台湾#其它$&area=其它",
"year": "全部$&lang=&year=#2022$&lang=&year=2022#2021$&lang=&year=2021#2020$&lang=&year=2020#2019$&lang=&year=2019#2018$&lang=&year=2018#2017$&lang=&year=2017#2016-2011$&lang=&year=2016#2010-2000$&lang=&year=2010#90年代$&lang=&year=90#80年代$&lang=&year=80#更早$&lang=&year=70"
},
"zy": {
"class": "全部$&class=#表演$&class=表演#播报$&class=播报#访谈$&class=访谈#体验$&class=体验#养成$&class=养成#游戏$&class=游戏#亲子$&class=亲子#美食$&class=美食#情感$&class=情感#选秀$&class=选秀#益智$&class=益智#晚会$&class=晚会#音乐$&class=音乐#文化$&class=文化#喜剧$&class=喜剧#曲艺$&class=曲艺#职场$&class=职场#脱口秀$&class=脱口秀#真人秀$&class=真人秀#竞技$&class=竞技#体育$&class=体育#萌宠$&class=萌宠",
"area": "全部$&area=#内地$&area=内地#香港$&area=香港#美国$&area=美国#韩国$&area=韩国#日本$&area=日本#台湾$&area=台湾",
"year": "全部$&lang=&year=#2022$&lang=&year=2022#2021$&lang=&year=2021#2020$&lang=&year=2020#2019$&lang=&year=2019#2018$&lang=&year=2018#2017$&lang=&year=2017#2016-2011$&lang=&year=2016#2010-2000$&lang=&year=2010#90年代$&lang=&year=90#80年代$&lang=&year=80#更早$&lang=&year=70"
},
"dm": {
"class": "全部$&class=#搞笑$&class=搞笑#番剧$&class=番剧#国创$&class=国创#大电影$&class=大电影#热血$&class=热血#催泪$&class=催泪#治愈$&class=治愈#励志$&class=励志#机战$&class=机战#战斗$&class=战斗#恋爱$&class=恋爱#科幻$&class=科幻#奇幻$&class=奇幻#魔幻$&class=魔幻#推理$&class=推理#校园$&class=校园#日常$&class=日常#经典$&class=经典#历史$&class=历史#美食$&class=美食#职场$&class=职场#偶像$&class=偶像#泡面$&class=泡面#冒险$&class=冒险#竞技$&class=竞技#武侠$&class=武侠#玄幻$&class=玄幻",
"area": "全部$&area=#内地$&area=内地#日本$&area=日本#欧美$&area=欧美#其它$&area=其它",
"year": "全部$&lang=&year=#2022$&lang=&year=2022#2021$&lang=&year=2021#2020$&lang=&year=2020#2019$&lang=&year=2019#2018$&lang=&year=2018#2017$&lang=&year=2017#2016-2011$&lang=&year=2016#2010-2000$&lang=&year=2010#90年代$&lang=&year=90#80年代$&lang=&year=80#更早$&lang=&year=70"
}
},
"zidingyi": {"name": "乐猪影视",
"url": "http://www.lezhutv.com",
"tihuan": "cnzz.com",
"User": "空",
"fenlei": "电视剧$/type/2-#电影$/type/1-#综艺$/type/3-#动漫$/type/4-#韩剧$/type/14-#美剧$/type/15-",
"houzhui": ".html",
"shifouercijiequ": "0",
"jiequqian": "空",
"jiequhou": "空",
"jiequshuzuqian": "class=\"vbox\"",
"jiequshuzuhou": "</a>",
"tupianqian": "data-original=\"",
"tupianhou": "\"",
"biaotiqian": "title=\"",
"biaotihou": "\"",
"lianjieqian": "href=\"",
"lianjiehou": "\"",
"sousuoqian": "/search-pg-1-wd-",
"sousuohou": ".html",
"sousuohouzhui": "/detail/",
"ssmoshi": "1",
"sousuoshifouercijiequ": "0",
"jspic": "空",
"jsname": "空",
"jsid": "空",
"ssjiequqian": "空",
"ssjiequhou": "空",
"ssjiequshuzuqian": "class=\"vbox\"",
"ssjiequshuzuhou": "</a>",
"sstupianqian": "data-original=\"",
"sstupianhou": "\"",
"ssbiaotiqian": "title=\"",
"ssbiaotihou": "\"",
"sslianjieqian": "href=\"",
"sslianjiehou": "\"",
"bfshifouercijiequ": "0",
"bfjiequqian": "空",
"bfjiequhou": "空",
"bfjiequshuzuqian": "class=\"list_block show\"",
"bfjiequshuzuhou": "</ul>",
"zhuangtaiqian": "class=\"yac\">",
"zhuangtaihou": "</p>",
"daoyanqian": "导演：</span>",
"daoyanhou": "</p>",
"zhuyanqian": "主演：</span>",
"zhuyanhou": "</p>",
"juqingqian": "class=\"tbox_js\">",
"juqinghou": "</div>",
"bfyshifouercijiequ": "0",
"bfyjiequqian": "空",
"bfyjiequhou": "空",
"bfyjiequshuzuqian": "<li>",
"bfyjiequshuzuhou": "</li>",
"bfbiaotiqian": "\">",
"bfbiaotihou": "</a>",
"bflianjieqian": "href=\"",
"bflianjiehou": "\""}}
